…
{% marginfigure 'fig3' 'assets/unemp/age_hist.png' '**Figure 3**: Distribution
of `age`. Bin width is set at 2 to reduce the number of bars in the graph.
A majority of respondents is under 40 years of age, 2.231 in fact, which
corresponds to 68% of all observations.'  %}

```R
library(dplyr)
library(Ecdat)
library(survival)
library(ggplot2)

data(UnempDur); data <- UnempDur; rm(UnempDur)
tibble::as.tibble(data)
# A tibble: 3,343 x 11
#    spell censor1 censor2 censor3 censor4   age ui    reprate disrate logwage tenure
#    <dbl>   <dbl>   <dbl>   <dbl>   <dbl> <dbl> <fct>   <dbl>   <dbl>   <dbl>  <dbl>
#  1     5       1       0       0       0    41 no      0.179   0.045    6.90      3
#  2    13       1       0       0       0    30 yes     0.52    0.13     5.29      6
#  3    21       1       0       0       0    36 yes     0.204   0.051    6.77      1
#  4     3       1       0       0       0    26 yes     0.448   0.112    5.98      3
#  5     9       0       0       1       0    22 yes     0.32    0.08     6.32      0
#  6    11       0       0       0       1    43 yes     0.187   0.047    6.85      9
#  7     1       0       0       0       0    24 no      0.52    0.13     5.61      1
#  8     3       1       0       0       0    32 no      0.373   0.093    6.16      0
#  9     7       1       0       0       0    35 yes     0.52    0.13     5.29      2
# 10     5       0       0       0       1    31 yes     0.52    0.13     5.29      1
# … with 3,333 more rows 
```
…
